…
#   ftype <chr>, fcode <int>, shape_length <dbl>, streamleve <int>,
#   streamorde <int>, streamcalc <int>, fromnode <dbl>, tonode <dbl>,
#   hydroseq <dbl>, levelpathi <dbl>, pathlength <dbl>, terminalpa <dbl>,
#   arbolatesu <dbl>, divergence <int>, startflag <int>, terminalfl <int>,
#   dnlevel <int>, uplevelpat <dbl>, uphydroseq <dbl>, dnlevelpat <dbl>,
#   dnminorhyd <int>, dndraincou <int>, dnhydroseq <dbl>, frommeas <int>, …
# ℹ Use `colnames()` to see all variable names
> mapview(cb_station_sf)
> cb_station_nhd
Simple feature collection with 30 features and 138 fields
Geometry type: LINESTRING
Dimension:     XY
Bounding box:  xmin: -77.32238 ymin: 38.00143 xmax: -76.3453 ymax: 38.94262
Geodetic CRS:  WGS 84
# A tibble: 30 × 139
   id            comid fdate               resolution gnis_id gnis_name lengthkm
 * <chr>         <int> <dttm>              <chr>      <chr>   <chr>        <dbl>
 1 nhdflowline… 4.53e6 2008-07-22 00:00:00 Medium     "59791… "Potomac…    8.17
 2 nhdflowline… 4.54e6 2008-07-22 00:00:00 Medium     " "     " "          3.74
 3 nhdflowline… 4.53e6 2008-07-22 00:00:00 Medium     " "     " "          0.712
 4 nhdflowline… 4.54e6 2008-07-22 00:00:00 Medium     "59465… "Cherry …    0.869
 5 nhdflowline… 2.23e7 2008-07-22 00:00:00 Medium     "59791… "Potomac…    3.69
 6 nhdflowline… 4.53e6 2008-07-22 00:00:00 Medium     " "     " "          2.80
 7 nhdflowline… 4.53e6 2008-07-22 00:00:00 Medium     " "     " "          0.694
 8 nhdflowline… 4.53e6 2008-07-22 00:00:00 Medium     " "     " "          4.86
 9 nhdflowline… 2.23e7 2008-07-22 00:00:00 Medium     "59790… "Piscata…    2.54
10 nhdflowline… 4.53e6 1999-08-13 00:00:00 Medium     "58665… "Popes C…    2.38
# ℹ 20 more rows
# ℹ 132 more variables: reachcode <chr>, flowdir <chr>, wbareacomi <int>,
#   ftype <chr>, fcode <int>, shape_length <dbl>, streamleve <int>,
#   streamorde <int>, streamcalc <int>, fromnode <dbl>, tonode <dbl>,
#   hydroseq <dbl>, levelpathi <dbl>, pathlength <dbl>, terminalpa <dbl>,
#   arbolatesu <dbl>, divergence <int>, startflag <int>, terminalfl <int>,
#   dnlevel <int>, uplevelpat <dbl>, uphydroseq <dbl>, dnlevelpat <dbl>, …
# ℹ Use `print(n = ...)` to see more rows, and `colnames()` to see all variable names
…
# ℹ 132 more variables: reachcode <chr>, flowdir <chr>, wbareacomi <int>,
#   ftype <chr>, fcode <int>, shape_length <dbl>, streamleve <int>,
#   streamorde <int>, streamcalc <int>, fromnode <dbl>, tonode <dbl>,
#   hydroseq <dbl>, levelpathi <dbl>, pathlength <dbl>, terminalpa <dbl>,
#   arbolatesu <dbl>, divergence <int>, startflag <int>, terminalfl <int>,
#   dnlevel <int>, uplevelpat <dbl>, uphydroseq <dbl>, dnlevelpat <dbl>,
#   dnminorhyd <int>, dndraincou <int>, dnhydroseq <dbl>, frommeas <dbl>, …
# ℹ Use `colnames()` to see all variable names
> cb_station_sf
Simple feature collection with 30 features and 18 fields
Geometry type: POINT
Dimension:     XY
Bounding box:  xmin: -77.30485 ymin: 38.0288 xmax: -76.3355 ymax: 38.93417
Geodetic CRS:  WGS 84
# A tibble: 30 × 19
   src   src_sub  data_type watershed watershed_sub site_name station start_year
 * <chr> <chr>    <chr>     <chr>     <chr>         <chr>     <chr>        <dbl>
 1 MDDNR EOTB-pr… WQ        Potomac … mainstem      "Potomac… XBE5486       2009
 2 MDDNR EOTB-pr… WQ        Potomac … mainstem      "Potomac… XCE0055       2007
 3 MDDNR EOTB     WQ        Potomac … mainstem      "Blossom… XDB4544       2006
 4 MDDNR EOTB     WQ        Potomac … mainstem      "Breton … XCD5599       2006
 5 MDDNR EOTB     WQ        Potomac … mainstem      "Fenwick" XFB0231       2004
 6 MDDNR EOTB     WQ        Potomac … mainstem      "Mallows… XDA8236       2018
 7 MDDNR EOTB     WQ        Potomac … mainstem      "Mattawo… XEA3687       2004
 8 MDDNR EOTB     WQ        Potomac … mainstem      "Piney P… XBE8396       2004
 9 MDDNR EOTB     WQ        Potomac … mainstem      "Piscata… XFB2184       2004
10 MDDNR EOTB     WQ        Potomac … mainstem      "Popes C… XDC3807       2006
# ℹ 20 more rows
# ℹ 11 more variables: end_year <dbl>, station_depth <chr>,
#   top_sensor_depth_m <list>, station_depth_m <list>, DO <list>,
#   WQ_fixed <list>, WQ_fixed_waterlevel <list>, url <chr>, notes <chr>,
#   geometry <POINT [°]>, comid <int>
# ℹ Use `print(n = ...)` to see more rows
…
+   st_drop_geometry() %>%
+   left_join(segs_xy, by = 'station', suffix = c(".x", "")) %>%
+   select(-ends_with(".x"))
> googlesheets4::write_sheet(cb_station_complete,
+                  ss = "https://docs.google.com/spreadsheets/d/1RrHvZfj1uJv9rUkVST4lMzTiD6UWWNVmZwCIHBOpJuk/edit#gid=0",
+                            sheet = 'data_flowlines')
+ ✔ Writing to stations_manual.
✔ Writing to sheet data_flowlines.
> cb_station_sf
Simple feature collection with 30 features and 18 fields
Geometry type: POINT
Dimension:     XY
Bounding box:  xmin: -77.30485 ymin: 38.0288 xmax: -76.3355 ymax: 38.93417
Geodetic CRS:  WGS 84
# A tibble: 30 × 19
   src   src_sub  data_type watershed watershed_sub site_name station start_year
 * <chr> <chr>    <chr>     <chr>     <chr>         <chr>     <chr>        <dbl>
 1 MDDNR EOTB-pr… WQ        Potomac … mainstem      "Potomac… XBE5486       2009
 2 MDDNR EOTB-pr… WQ        Potomac … mainstem      "Potomac… XCE0055       2007
 3 MDDNR EOTB     WQ        Potomac … mainstem      "Blossom… XDB4544       2006
 4 MDDNR EOTB     WQ        Potomac … mainstem      "Breton … XCD5599       2006
 5 MDDNR EOTB     WQ        Potomac … mainstem      "Fenwick" XFB0231       2004
 6 MDDNR EOTB     WQ        Potomac … mainstem      "Mallows… XDA8236       2018
 7 MDDNR EOTB     WQ        Potomac … mainstem      "Mattawo… XEA3687       2004
 8 MDDNR EOTB     WQ        Potomac … mainstem      "Piney P… XBE8396       2004
 9 MDDNR EOTB     WQ        Potomac … mainstem      "Piscata… XFB2184       2004
10 MDDNR EOTB     WQ        Potomac … mainstem      "Popes C… XDC3807       2006
# ℹ 20 more rows
# ℹ 11 more variables: end_year <dbl>, station_depth <chr>,
#   top_sensor_depth_m <list>, station_depth_m <list>, DO <list>,
#   WQ_fixed <list>, WQ_fixed_waterlevel <list>, url <chr>, notes <chr>,
#   geometry <POINT [°]>, comid <int>
# ℹ Use `print(n = ...)` to see more rows
…
+   st_drop_geometry() %>%
+   left_join(segs_xy, by = 'station', suffix = c(".x", "")) %>%
+   select(-ends_with(".x"))
> googlesheets4::write_sheet(cb_station_complete,
+                  ss = "https://docs.google.com/spreadsheets/d/1RrHvZfj1uJv9rUkVST4lMzTiD6UWWNVmZwCIHBOpJuk/edit#gid=0",
+                            sheet = 'data_flowlines')
+ ✔ Writing to stations_manual.
✔ Writing to sheet data_flowlines.
> segs_filt_dist
Simple feature collection with 253 features and 142 fields
Geometry type: LINESTRING
Dimension:     XY
Bounding box:  xmin: 4527842 ymin: 5387066 xmax: 4667263 ymax: 5459413
Projected CRS: NAD83 / UTM zone 10N
# A tibble: 253 × 143
   rowid id      comid fdate               resolution gnis_id gnis_name lengthkm
 * <int> <chr>   <int> <dttm>              <chr>      <chr>   <chr>        <dbl>
 1   202 nhdfl… 2.23e7 2008-07-22 00:00:00 Medium     597915  Potomac …    5.22
 2   247 nhdfl… 2.23e7 2008-07-22 00:00:00 Medium     597915  Potomac …    2.83
 3   203 nhdfl… 2.23e7 2008-07-22 00:00:00 Medium     597915  Potomac …    0.163
 4   204 nhdfl… 2.23e7 2008-07-22 00:00:00 Medium     597915  Potomac …    2.05
 5   205 nhdfl… 2.23e7 2008-07-22 00:00:00 Medium     597915  Potomac …    2.05
 6   206 nhdfl… 2.23e7 2008-07-22 00:00:00 Medium     597915  Potomac …    2.05
 7   207 nhdfl… 2.23e7 2008-07-22 00:00:00 Medium     597915  Potomac …    2.05
 8   208 nhdfl… 2.23e7 2008-07-22 00:00:00 Medium     597915  Potomac …    2.05
 9   209 nhdfl… 2.23e7 2008-07-22 00:00:00 Medium     597915  Potomac …    2.05
10   210 nhdfl… 2.23e7 2008-07-22 00:00:00 Medium     597915  Potomac …    2.05
# ℹ 243 more rows
# ℹ 135 more variables: reachcode <chr>, flowdir <chr>, wbareacomi <int>,
#   ftype <chr>, fcode <int>, shape_length <dbl>, streamleve <int>,
#   streamorde <int>, streamcalc <int>, fromnode <dbl>, tonode <dbl>,
#   hydroseq <dbl>, levelpathi <dbl>, pathlength <dbl>, terminalpa <dbl>,
#   arbolatesu <dbl>, divergence <int>, startflag <int>, terminalfl <int>,
#   dnlevel <int>, uplevelpat <dbl>, uphydroseq <dbl>, dnlevelpat <dbl>, …
# ℹ Use `print(n = ...)` to see more rows, and `colnames()` to see all variable names
…
